999999999999999999999
999999999989999999999
999999999878999999999
999999998767899999999
999999987656789999999
999999876545678999999
999998765434567899999
999987654323456789999
999876543212345678999
998765432101234567899
999876543212345678999
999987654323456789999
999998765434567899999
999999876545678999999
999999987656789999999
999999998767899999999
999999999878999999999
999999999989999999999
999999999999999999999
999999999999999999999
999999999999999999999
